{
  "name": "mweetman-puppet",
  "version": "0.2.1",
  "author": "mweetman",
  "summary": "Manages puppet",
  "license": "Apache 2.0",
  "source": "https://gitlab.com/mweetman/puppet-modules",
  "issues_url": "https://gitlab.com/mweetman/puppet-modules",
  "project_page": "https://gitlab.com/mweetman/puppet-modules",
  "operatingsystem_support": [
    {
    "operatingsystem": [ "RedHat", "CentOS" ],
    "operatingsystemmajrelease": [ "6", "7" ]
    }
  ],
  "dependencies": [
    {"version_requirement":">= 0.1.0","name":"mweetman/rhfuncs"}
  ]
}

